{
  "results": [
    {
      "popularity": 343.278,
      "vote_count": 765,
      "video": false,
      "poster_path": "/A7hhUj9Fq6E6FhGsENJTCmnCmt4.jpg",
      "id": 454626,
      "adult": false,
      "backdrop_path": "/qonBhlm0UjuKX2sH7e73pnG0454.jpg",
      "original_language": "en",
      "original_title": "Sonic the Hedgehog",
      "genre_ids": [
        28,
        35,
        878,
        10751
      ],
      "title": "Sonic. La película",
      "vote_average": 7.2,
      "overview": "Sonic, el famoso erizo azul de SEGA vivirá su primera aventura en la pantalla grande. En esta adaptación cinematográfica basada en la conocida saga de videojuegos podremos ver a los personajes icónicos de la franquicia. Su protagonista será Sonic, el erizo con la habilidad de correr a la velocidad del sonido y que, junto con sus amigos el zorro Tails y el equidna Knuckles, combaten con el malvado Doctor Eggman, que siempre está tratando de dominar el mundo y apoderarse de las esmeraldas del caos.",
      "release_date": "2020-02-14"
    },
    {
      "popularity": 258.342,
      "vote_count": 1100,
      "video": false,
      "poster_path": "/4GCqF17I2ST5M8iSkwh1jwqvi7F.jpg",
      "id": 495764,
      "adult": false,
      "backdrop_path": "/jiqD14fg7UTZOT6qgvzTmfRYpWI.jpg",
      "original_language": "en",
      "original_title": "Birds of Prey (and the Fantabulous Emancipation of One Harley Quinn)",
      "genre_ids": [
        28,
        35,
        80
      ],
      "title": "Aves de Presa (y la Fantabulosa Emancipación de Harley Quinn)",
      "vote_average": 6.8,
      "overview": "Después de separarse de Joker, Harley Quinn y otras tres heroínas (Canario Negro, Cazadora y Renée Montoya) unen sus fuerzas para salvar a una niña (Cassandra Cain) del malvado rey del crimen Máscara Negra.",
      "release_date": "2020-02-07"
    },
    {
      "popularity": 173.809,
      "vote_count": 60,
      "video": false,
      "poster_path": "/qZ1KAgfdeNbzrNYKW4BIRHdEBJ9.jpg",
      "id": 666750,
      "adult": false,
      "backdrop_path": "/6mKAKhj8POVGqV1GsroS5mGIUe9.jpg",
      "original_language": "en",
      "original_title": "Dragonheart: Vengeance",
      "genre_ids": [
        14
      ],
      "title": "Dragonheart: Vengeance",
      "vote_average": 5.9,
      "overview": "Lukas, un joven agricultor cuya familia es asesinada por salvajes guerreros, se embarca en una aventura épica en busca de venganza, formando un trío imposible con un dragón majestuoso y un mercenario espadachín llamado Darius.",
      "release_date": "2020-02-04"
    },
    {
      "popularity": 142.089,
      "vote_count": 313,
      "video": false,
      "poster_path": "/tRGIqrs4Z2aIZPVRcapvgGnTLnI.jpg",
      "id": 570670,
      "adult": false,
      "backdrop_path": "/uZMZyvarQuXLRqf3xdpdMqzdtjb.jpg",
      "original_language": "en",
      "original_title": "The Invisible Man",
      "genre_ids": [
        27,
        878,
        53
      ],
      "title": "El hombre invisible",
      "vote_average": 7.2,
      "overview": "Después de que su abusivo ex novio se suicide, la ingenua viuda Cecilia comienza a reconstruir su vida para mejor. Sin embargo, su sentido de la realidad se pone en tela de juicio cuando comienza a sospechar que su ex novio en realidad no está muerto, como había pensado.",
      "release_date": "2020-02-28"
    },
    {
      "popularity": 103.912,
      "vote_count": 114,
      "video": false,
      "poster_path": "/tHWeWBBOlkPYdlZcjSKeToQvgZg.jpg",
      "id": 508439,
      "adult": false,
      "backdrop_path": "/bcT8CaBIj086WVD7K529h78eujb.jpg",
      "original_language": "en",
      "original_title": "Onward",
      "genre_ids": [
        12,
        16,
        35,
        14,
        10751
      ],
      "title": "Onward",
      "vote_average": 8.1,
      "overview": "Ambientado en un mundo de fantasía suburbana, dos hermanos elfos adolescentes, Ian y Barley Lightfood, se embarcan en una aventura en la que se proponen descubrir si existe aún algo de magia en el mundo que les permita pasar un último día con su padre, que falleció cuando ellos eran aún muy pequeños como para poder recordarlo.",
      "release_date": "2020-03-06"
    },
    {
      "popularity": 58.809,
      "vote_count": 162,
      "video": false,
      "poster_path": "/2KlzkeqqmXaDdXo7D6pq7qQLJoM.jpg",
      "id": 481848,
      "adult": false,
      "backdrop_path": "/yFRpUmsreYO5Bc0HVBTsJsHIIox.jpg",
      "original_language": "en",
      "original_title": "The Call of the Wild",
      "genre_ids": [
        12,
        18,
        10751
      ],
      "title": "La llamada de lo salvaje",
      "vote_average": 6,
      "overview": "Cuenta la historia de Buck, un perro bonachón cuya vida cambia de la noche a la mañana cuando su dueño se muda de California a los exóticos parajes de Alaska durante la Fiebre del Oro a finales del s. XIX. Como novato de un grupo perros de trineo (y posteriormente su líder), Buck experimenta una aventura que jamás olvidará, encontrando su lugar en el mundo y convirtiéndose así en su propio amo.",
      "release_date": "2020-02-21"
    },
    {
      "popularity": 55.219,
      "vote_count": 62,
      "video": false,
      "poster_path": "/2kNnf7BwRCEm4bcFkdiE0T4U25s.jpg",
      "id": 457335,
      "adult": false,
      "backdrop_path": "/gL7TV2g9y9p3v7occ5bLrJ2p1qs.jpg",
      "original_language": "en",
      "original_title": "Guns Akimbo",
      "genre_ids": [
        28,
        35
      ],
      "title": "Guns Akimbo",
      "vote_average": 6.4,
      "overview": "Miles (Daniel Radcliffe) se siente atascado en la vida: su trabajo no tiene futuro y sigue enamorado de su exnovia Nova. Un día descubre que un grupo de mafiosos llamado \"Skizm\" planea celebrar una peligrosa competición que reúne a extraños de distintos puntos de la ciudad con el propósito de comprobar cuál de ellos logra una mayor cantidad de espectadores online. Aunque al principio tiene dudas, pronto descubre que Nora ha sido secuestrada por Nix, un grupo armado que participa en el concurso, por lo que Miles decide dejar atrás sus miedos para participar en el torneo.",
      "release_date": "2020-02-28"
    },
    {
      "popularity": 52.561,
      "vote_count": 34,
      "video": false,
      "poster_path": "/sm8iVzA7kRp0d4BSIsgXjsSBMKV.jpg",
      "id": 556678,
      "adult": false,
      "backdrop_path": "/l111ATIHwHQPL9dHKV5Lix85Azq.jpg",
      "original_language": "en",
      "original_title": "Emma.",
      "genre_ids": [
        35,
        18
      ],
      "title": "Emma.",
      "vote_average": 7.3,
      "overview": "Guapa, inteligente y rica, la joven Emma Woodhouse es una reina sin rival en su pequeño pueblo. Nueva adaptación de la novela de Jane Austen publicada en 1815 sobre la vida de la joven Emma",
      "release_date": "2020-02-21"
    },
    {
      "popularity": 40.614,
      "vote_count": 31,
      "video": false,
      "poster_path": "/uXTtUYleKiaF0KuBwupIeuSjyLA.jpg",
      "id": 615453,
      "adult": false,
      "backdrop_path": "/eGK2JJO1ZeoabWThHmC9IjUTmfP.jpg",
      "original_language": "zh",
      "original_title": "哪吒之魔童降世",
      "genre_ids": [
        16,
        35,
        14
      ],
      "title": "Ne Zha",
      "vote_average": 7.3,
      "overview": "Nezha, nacido de una perla celestial con poderes únicos, pronto se encontrará exiliado, odiado y temido por la gente que cree en una profecía que indica que él traerá la destrucción del mundo. Llegará el momento en el que deberá decidir entre el bien y el mal con el propósito de romper los grilletes del destino y convertirse en un héroe. Película inspirada muy libremente en \"Fengshen Yanyi\" (\"La Investidura de los Dioses\"), una de las grandes novelas chinas escritas en la Dinastía Ming cuya autoría se atribuye a Xu Zhonglin o Lu Xixing.",
      "release_date": "2019-08-29"
    },
    {
      "popularity": 40.198,
      "vote_count": 391,
      "video": false,
      "poster_path": "/gvfQp5hUNKRUDAE7HMQdwGNl7Fs.jpg",
      "id": 522627,
      "adult": false,
      "backdrop_path": "/9Qfawg9WT3cSbBXQgDRuWbYS9lj.jpg",
      "original_language": "en",
      "original_title": "The Gentlemen",
      "genre_ids": [
        28,
        35,
        80
      ],
      "title": "The Gentlemen: Los señores de la mafia",
      "vote_average": 7.9,
      "overview": "Un capo de la droga con un marcado estilo británico intenta vender su imperio a una dinastía de multimillonarios procedentes de Oklahoma.",
      "release_date": "2020-01-24"
    },
    {
      "popularity": 38.064,
      "vote_count": 8,
      "video": false,
      "poster_path": "/zwgPO5bamUuajIAEc02q9XZ2qhq.jpg",
      "id": 529485,
      "adult": false,
      "backdrop_path": "/iTLGqoHkiSqUts9nPIdYLPtOz8C.jpg",
      "original_language": "en",
      "original_title": "The Way Back",
      "genre_ids": [
        18
      ],
      "title": "The Way Back",
      "vote_average": 6.4,
      "overview": "",
      "release_date": "2020-03-06"
    },
    {
      "popularity": 35.925,
      "vote_count": 363,
      "video": false,
      "poster_path": "/muAsDE6qAqdKB2VJsIzo1uVSSuM.jpg",
      "id": 531428,
      "adult": false,
      "backdrop_path": "/joXf2ToDZjVMBxWrzijQ3V9cC8p.jpg",
      "original_language": "fr",
      "original_title": "Portrait de la jeune fille en feu",
      "genre_ids": [
        18,
        10749
      ],
      "title": "Retrato de una mujer en llamas",
      "vote_average": 8.3,
      "overview": "Bretaña francesa, 1770. Marianne (Noémie Merlant) es una pintora que debe realizar el retrato matrimonial de Héloïse (Adèle Haenel), una joven que acaba de dejar el convento. Héloïse no acepta su destino como mujer casada y se niega a posar, por lo que Marianne debe trabajar en secreto. Para ello, se hace pasar por dama de compañía, para así observarla de día y pintarla de noche. Su relación se vuelve más intensa a medida que comparten juntas los últimos momentos de libertad de Héloïse antes de su boda.",
      "release_date": "2019-12-06"
    },
    {
      "popularity": 34.431,
      "vote_count": 143,
      "video": false,
      "poster_path": "/y0ZX1ymtnZ4ATsQJjXTPaG9RdWD.jpg",
      "id": 539537,
      "adult": false,
      "backdrop_path": "/dzfiE2VHY362dGI62XfZ2iI87CT.jpg",
      "original_language": "en",
      "original_title": "Fantasy Island",
      "genre_ids": [
        14,
        27,
        878
      ],
      "title": "Fantasy Island",
      "vote_average": 4.9,
      "overview": "El enigmático Sr. Roarke hace realidad los sueños de los afortunados huéspedes que acuden a su lujoso y remoto resort tropical. Sin embargo, sus fantasías se convertirán en pesadillas, y los invitados deberán resolver el misterio que oculta la isla para poder escapar con vida. Adaptación en clave de terror del famoso programa de televisión de los años 70 ambientado en un resort ubicado en una isla mágica.",
      "release_date": "2020-02-27"
    },
    {
      "popularity": 29.38,
      "vote_count": 42,
      "video": false,
      "poster_path": "/xuAT8OO8hO00ibo1646M78qG3hj.jpg",
      "id": 586592,
      "adult": false,
      "backdrop_path": "/p9JcAhM62U7exDGrSVqeITjlAsf.jpg",
      "original_language": "en",
      "original_title": "Come to Daddy",
      "genre_ids": [
        35,
        27,
        53
      ],
      "title": "Ven con papá",
      "vote_average": 6,
      "overview": "La vida de Norval (Elijah Wood) está siendo difícil. Mientras vive con su madre entra y sale de terapias de rehabilitación relacionadas con el alcohol sin rumbo aparente. Un día recibe una carta de su padre solicitando una visita y no se lo piensa dos veces: acude rápidamente a su casa, convencido de que reunirse con él llenará el vacío emocional que lleva sintiendo desde su adolescencia. Sin embargo, al cabo de poco tiempo Norval comienza a sentir que hay algo que no encaja en la actitud de su padre, un adictivo empedernido al alcohol. El joven muchacho pronto se da cuenta de que su soñada reunión familiar se ha convertido en un camino hacia una pesadilla.",
      "release_date": "2020-02-07"
    },
    {
      "popularity": 28.782,
      "vote_count": 100,
      "video": false,
      "poster_path": "/vkwgzCBBiY3C1XEy0WakYfMOvnG.jpg",
      "id": 548473,
      "adult": false,
      "backdrop_path": "/iyn2JQsftaqhQlXYaCCvn8udM5i.jpg",
      "original_language": "en",
      "original_title": "Color Out of Space",
      "genre_ids": [
        27,
        878
      ],
      "title": "Color Out of Space",
      "vote_average": 6.3,
      "overview": "Una historia de terror cósmico sobre The Gardners, una familia que se muda a una granja remota en la zona rural de Nueva Inglaterra para escapar del ajetreo del siglo XXI. Están ocupados adaptándose a su nueva vida cuando un meteorito se estrella contra su patio delantero. La misteriosa aerolita parece derretirse en la tierra, infectando tanto la tierra como las propiedades del espacio-tiempo con un color extraño y de otro mundo. Para su horror, la familia Gardner descubre que esta fuerza alienígena está mutando gradualmente cada forma de vida que toca ... incluidas ellas.",
      "release_date": "2020-01-24"
    },
    {
      "popularity": 27.736,
      "vote_count": 39,
      "video": false,
      "poster_path": "/cuuI1UVwnoyDoN691Z0bYZrOezx.jpg",
      "id": 555974,
      "adult": false,
      "backdrop_path": "/rpGYHowXtjw37UxdwO1ZcK5E8IN.jpg",
      "original_language": "en",
      "original_title": "Brahms: The Boy II",
      "genre_ids": [
        27,
        9648,
        53
      ],
      "title": "The Boy: La maldición de Brahms",
      "vote_average": 5.4,
      "overview": "Una familia joven que desconoce la oscura historia, se muda a la Mansión Heelshire. La premisa seguirá la historia del hijo menor que encuentra la muñeca de porcelana y se hace amigo de Brahms.",
      "release_date": "2020-02-20"
    },
    {
      "popularity": 25.994,
      "id": 503917,
      "video": false,
      "vote_count": 25,
      "vote_average": 4.9,
      "title": "肥龍過江",
      "release_date": "2020-02-14",
      "original_language": "cn",
      "original_title": "肥龍過江",
      "genre_ids": [
        28,
        35
      ],
      "backdrop_path": "/1wv5gjKrxaQKn6CyyMYcANY9soM.jpg",
      "adult": false,
      "overview": "",
      "poster_path": "/fQqqsj0WhANqGqHQ8BhBE7iI4bk.jpg"
    },
    {
      "popularity": 24.865,
      "vote_count": 20,
      "video": false,
      "poster_path": "/ji1JO9bZX3pQ15lhU96dj0gZO74.jpg",
      "id": 526007,
      "adult": false,
      "backdrop_path": "/kO651id9IGtMGz7OwT1ZThJ6NP2.jpg",
      "original_language": "en",
      "original_title": "The Night Clerk",
      "genre_ids": [
        80,
        18
      ],
      "title": "The Night Clerk",
      "vote_average": 6.2,
      "overview": "",
      "release_date": "2020-02-21"
    },
    {
      "popularity": 24.808,
      "vote_count": 3,
      "video": false,
      "poster_path": "/aSAhc0cUxMYyfwtgvC5k5ZQg0zW.jpg",
      "id": 590575,
      "adult": false,
      "backdrop_path": "/5GVUS4NcSawRsunfVwFSImlL3tY.jpg",
      "original_language": "en",
      "original_title": "Beneath Us",
      "genre_ids": [
        18,
        27,
        53
      ],
      "title": "Beneath Us",
      "vote_average": 6.8,
      "overview": "",
      "release_date": "2020-03-06"
    },
    {
      "popularity": 22.68,
      "vote_count": 1,
      "video": false,
      "poster_path": "/mAcCwIbaIR4YcK0K1SPFQKEoanA.jpg",
      "id": 627725,
      "adult": false,
      "backdrop_path": "/jqz8FwISQfyum47PUqgPTGtmiMk.jpg",
      "original_language": "en",
      "original_title": "The Banker",
      "genre_ids": [
        18
      ],
      "title": "The Banker",
      "vote_average": 9,
      "overview": "Basado en una historia real, The Banker se centra en los empresarios revolucionarios Bernard Garrett y Joe Morris, quienes diseñan un plan audaz y arriesgado para enfrentar el establecimiento racialmente opresivo de la década de 1960 ayudando a otros afroamericanos que persiguen el sueño americano. Junto con la esposa de Garrett, Eunice, entrenan a un hombre blanco de clase trabajadora, Matt Steiner, para hacerse pasar por la cara rica y privilegiada de su floreciente imperio inmobiliario y bancario, mientras que Garrett y Morris se hacen pasar por un conserje. y un chofer. Su éxito finalmente llama la atención del gobierno federal, que amenaza todo lo que los cuatro han construido.",
      "release_date": "2020-03-06"
    }
  ],
  "page": 1,
  "total_results": 114,
  "dates": {
    "maximum": "2020-03-07",
    "minimum": "2020-01-19"
  },
  "total_pages": 6
}